<svg width="457" height="388" viewBox="0 0 457 388" fill="none" xmlns="http://www.w3.org/2000/svg">
<path d="M139.325 244.98L123.497 352.505L152.559 373.598L178.64 385.95L186.81 382.874L186.299 373.598L186.81 354.049V312.894V285.628L139.325 244.98Z" fill="url(#paint0_linear)"/>
<path d="M110.733 297.267L139.836 244.467L122.987 352.117L69.8862 361.344L110.733 297.267Z" fill="url(#paint1_linear)"/>
<path d="M69.3757 360.831L62.7381 215.761L112.265 293.679L69.3757 360.831Z" fill="url(#paint2_linear)"/>
<path d="M63.7593 213.71L3 286.502L68.8651 361.857L63.7593 213.71Z" fill="url(#paint3_linear)"/>
<path d="M23.4233 136.305L62.7381 216.274L3 287.015L10.1481 191.155L23.4233 136.305Z" fill="url(#paint4_linear)"/>
<path d="M23.4233 135.793L58.6534 122.977L75.5026 148.608L90.3095 173.726L62.7381 215.761L23.4233 135.793Z" fill="url(#paint5_linear)"/>
<path d="M62.2275 216.297L89.7989 174.262L120.434 166.037L117.881 173.99L138.815 245.003L111.754 295.24L62.2275 216.297Z" fill="url(#paint6_linear)"/>
<path d="M139.836 244.359L185.788 180.39V285.989L139.836 244.359Z" fill="url(#paint7_linear)"/>
<path d="M154.132 172.701L185.788 179.878L139.836 243.442L118.392 174.239V166.55L127.582 163.987L136.262 161.424L154.132 172.701Z" fill="url(#paint8_linear)"/>
<path d="M59.164 123.283L93.7613 110.675L123.344 130.849L142.899 135.892L134.877 160.605L126.353 163.014L115.322 166.13L90.2514 173.214L75.7105 148.501L59.164 123.283Z" fill="url(#paint9_linear)"/>
<path d="M113.796 144.507L124.519 149.633L135.751 160.911L127.071 163.474L103.585 164.499L90.8201 162.449L82.6508 156.297L75.5026 148.608L84.6931 142.457L93.8836 141.432H103.585L113.796 144.507Z" fill="url(#paint10_diamond)"/>
<path d="M144.694 137.331L136.772 161.281L155.587 173.5L185.788 179.365L144.694 137.331Z" fill="url(#paint11_linear)"/>
<path d="M68.3005 3.02524L111.283 29.4007L115.328 69.9783L31.3864 99.3971L10.1481 45.6317L31.3864 3.02524H68.3005Z" fill="url(#paint12_linear)"/>
<path d="M114.307 71.7158L32.3444 100.295L24.4444 135.28L58.5132 122.962L92.5819 110.643L114.307 71.7158Z" fill="url(#paint13_linear)"/>
<path d="M116.912 70.6906L143.921 99.7309V135.28L124.414 130.273L94.9048 110.245L116.912 70.6906Z" fill="url(#paint14_linear)"/>
<path d="M143.921 99.8025L185.788 46.085V179.365L143.921 135.783V99.8025Z" fill="url(#paint15_linear)"/>
<path d="M113.286 28.656L185.788 44.822L144.287 98.3718L117.286 69.071L113.286 28.656Z" fill="url(#paint16_linear)"/>
<path d="M178.64 325.973L182.725 328.024V334.175L178.64 337.764L172.513 334.175L173.534 326.486L178.64 325.973Z" fill="black"/>
<path d="M186.299 45.0598L112.265 28.656M186.299 45.0598L143.921 99.3971M186.299 45.0598V179.878M112.265 28.656L70.069 2.73946C69.2818 2.25596 68.376 2 67.4522 2H34.6883C32.7915 2 31.0581 3.07321 30.2126 4.77104L11.1408 43.0665C10.5089 44.3353 10.4453 45.8126 10.9656 47.131L31.5926 99.3971M112.265 28.656L116.349 69.6653M31.5926 99.3971L116.349 69.6653M31.5926 99.3971L23.4233 135.793M116.349 69.6653L143.921 99.3971M116.349 69.6653L93.8836 110.162M143.921 99.3971V135.793M93.8836 110.162L58.6534 122.977M93.8836 110.162L123.286 130.176C123.764 130.5 124.294 130.74 124.853 130.884L143.921 135.793M23.4233 135.793L58.6534 122.977M23.4233 135.793L62.7381 215.761M23.4233 135.793L10.2442 190.246C10.1803 190.51 10.138 190.779 10.1178 191.05L3 286.502M58.6534 122.977L75.5026 148.608M90.3095 173.726L62.7381 215.761M90.3095 173.726L127.071 163.359M90.3095 173.726L75.5026 148.608M135.751 160.911L143.921 135.793M135.751 160.911L154.332 173.184C154.874 173.542 155.481 173.791 156.119 173.917L186.299 179.878M135.751 160.911L127.071 163.359M135.751 160.911L125.127 150.244C124.724 149.84 124.256 149.508 123.741 149.262L114.143 144.673C113.912 144.563 113.673 144.47 113.428 144.396L104.29 141.644C103.822 141.503 103.336 141.432 102.848 141.432H93.8836L85.9059 142.322C85.1091 142.41 84.3453 142.69 83.6791 143.136L75.5026 148.608M135.751 160.911L120.737 165.145C118.046 165.904 116.5 168.723 117.307 171.4L139.325 244.467M143.921 135.793L186.299 179.878M186.299 179.878L139.325 244.467M186.299 179.878V286.502M62.7381 215.761L3 286.502M62.7381 215.761L68.8651 362.369M62.7381 215.761L112.265 294.704M3 286.502L68.8651 362.369M68.8651 362.369L112.265 294.704M68.8651 362.369L122.987 352.629M139.325 244.467L112.265 294.704M139.325 244.467L122.987 352.629M139.325 244.467L186.299 286.502M122.987 352.629L152.115 373.806C152.438 374.041 152.787 374.236 153.156 374.387L179.399 385.166C182.69 386.518 186.299 384.098 186.299 380.541V354.68M186.299 286.502V313.671M186.299 354.68L164.78 345.228C162.964 344.43 161.791 342.634 161.791 340.65V322.116C161.791 320.66 162.426 319.276 163.53 318.326L167.533 314.881C168.44 314.1 169.597 313.671 170.794 313.671H186.299M186.299 354.68V313.671M127.071 163.359L104.105 164.474C103.759 164.491 103.412 164.472 103.07 164.417L92.0443 162.646C91.2403 162.516 90.4801 162.193 89.8297 161.703L83.0041 156.564C82.769 156.387 82.55 156.189 82.3497 155.974L75.5026 148.608M175.756 336.587L174.643 335.935C173.301 335.149 172.401 333.783 172.208 332.239L172.192 332.104C171.82 329.12 174.147 326.486 177.153 326.486H177.456C178.235 326.486 179.003 326.668 179.699 327.017L179.968 327.153C181.658 328.001 182.725 329.73 182.725 331.621V332.593C182.725 333.925 182.151 335.192 181.151 336.071V336.071C179.652 337.387 177.478 337.596 175.756 336.587Z" stroke="white" stroke-width="4"/>
<path d="M201.078 187.437L285.746 82.0662H315.043V107.164L229.496 211.656H201.078V187.437ZM313.285 211.656H238.188L262.797 183.238H313.285V211.656ZM203.715 82.0662H277.25L252.738 110.387H203.715V82.0662ZM381.645 211.656V185.777H413.676V107.945H381.645V82.0662H430.961L456.938 107.945V185.777L430.961 211.656H381.645ZM331.645 82.0662H374.809V211.656H331.645V82.0662Z" fill="white"/>
<path d="M227.792 256.95C226.812 258.024 225.506 259.54 223.872 261.5C222.286 263.46 220.559 265.63 218.692 268.01C216.872 270.39 215.029 272.887 213.162 275.5C211.342 278.114 209.732 280.61 208.332 282.99H228.352V288.45H200.562V284.11C201.682 282.057 203.059 279.794 204.692 277.32C206.326 274.847 208.029 272.397 209.802 269.97C211.622 267.497 213.372 265.187 215.052 263.04C216.779 260.847 218.272 259.004 219.532 257.51H201.542V252.05H227.792V256.95ZM233.263 270.32C233.263 267.1 233.729 264.3 234.663 261.92C235.596 259.494 236.833 257.487 238.373 255.9C239.913 254.314 241.686 253.124 243.693 252.33C245.699 251.537 247.753 251.14 249.853 251.14C254.753 251.14 258.509 252.68 261.123 255.76C263.736 258.794 265.043 263.437 265.043 269.69C265.043 269.97 265.043 270.344 265.043 270.81C265.043 271.23 265.019 271.627 264.973 272H240.053C240.333 275.78 241.429 278.65 243.343 280.61C245.256 282.57 248.243 283.55 252.303 283.55C254.589 283.55 256.503 283.364 258.043 282.99C259.629 282.57 260.819 282.174 261.613 281.8L262.523 287.26C261.729 287.68 260.329 288.124 258.323 288.59C256.363 289.057 254.123 289.29 251.603 289.29C248.429 289.29 245.676 288.824 243.343 287.89C241.056 286.91 239.166 285.58 237.673 283.9C236.179 282.22 235.059 280.237 234.313 277.95C233.613 275.617 233.263 273.074 233.263 270.32ZM258.253 266.75C258.299 263.81 257.553 261.407 256.013 259.54C254.519 257.627 252.443 256.67 249.783 256.67C248.289 256.67 246.959 256.974 245.793 257.58C244.673 258.14 243.716 258.887 242.923 259.82C242.129 260.754 241.499 261.827 241.033 263.04C240.613 264.254 240.333 265.49 240.193 266.75H258.253ZM287.834 251.28C288.394 251.28 289.024 251.327 289.724 251.42C290.471 251.467 291.194 251.56 291.894 251.7C292.594 251.794 293.224 251.91 293.784 252.05C294.391 252.144 294.834 252.237 295.114 252.33L293.994 258C293.481 257.814 292.618 257.604 291.404 257.37C290.238 257.09 288.721 256.95 286.854 256.95C285.641 256.95 284.428 257.09 283.214 257.37C282.048 257.604 281.278 257.767 280.904 257.86V288.45H274.394V253.59C275.934 253.03 277.848 252.517 280.134 252.05C282.421 251.537 284.988 251.28 287.834 251.28ZM333.526 270.25C333.526 273.144 333.106 275.757 332.266 278.09C331.426 280.424 330.236 282.43 328.696 284.11C327.203 285.79 325.406 287.097 323.306 288.03C321.206 288.917 318.92 289.36 316.446 289.36C313.973 289.36 311.686 288.917 309.586 288.03C307.486 287.097 305.666 285.79 304.126 284.11C302.633 282.43 301.466 280.424 300.626 278.09C299.786 275.757 299.366 273.144 299.366 270.25C299.366 267.404 299.786 264.814 300.626 262.48C301.466 260.1 302.633 258.07 304.126 256.39C305.666 254.71 307.486 253.427 309.586 252.54C311.686 251.607 313.973 251.14 316.446 251.14C318.92 251.14 321.206 251.607 323.306 252.54C325.406 253.427 327.203 254.71 328.696 256.39C330.236 258.07 331.426 260.1 332.266 262.48C333.106 264.814 333.526 267.404 333.526 270.25ZM326.736 270.25C326.736 266.144 325.803 262.9 323.936 260.52C322.116 258.094 319.62 256.88 316.446 256.88C313.273 256.88 310.753 258.094 308.886 260.52C307.066 262.9 306.156 266.144 306.156 270.25C306.156 274.357 307.066 277.624 308.886 280.05C310.753 282.43 313.273 283.62 316.446 283.62C319.62 283.62 322.116 282.43 323.936 280.05C325.803 277.624 326.736 274.357 326.736 270.25ZM366.205 259.75C365.412 259.097 364.269 258.467 362.775 257.86C361.282 257.254 359.649 256.95 357.875 256.95C356.009 256.95 354.399 257.3 353.045 258C351.739 258.654 350.665 259.587 349.825 260.8C348.985 261.967 348.379 263.367 348.005 265C347.632 266.634 347.445 268.384 347.445 270.25C347.445 274.497 348.495 277.787 350.595 280.12C352.695 282.407 355.495 283.55 358.995 283.55C360.769 283.55 362.239 283.48 363.405 283.34C364.619 283.154 365.552 282.967 366.205 282.78V259.75ZM366.205 235.25L372.715 234.13V287.4C371.222 287.82 369.309 288.24 366.975 288.66C364.642 289.08 361.959 289.29 358.925 289.29C356.125 289.29 353.605 288.847 351.365 287.96C349.125 287.074 347.212 285.814 345.625 284.18C344.039 282.547 342.802 280.564 341.915 278.23C341.075 275.85 340.655 273.19 340.655 270.25C340.655 267.45 341.005 264.884 341.705 262.55C342.452 260.217 343.525 258.21 344.925 256.53C346.325 254.85 348.029 253.544 350.035 252.61C352.089 251.677 354.422 251.21 357.035 251.21C359.135 251.21 360.979 251.49 362.565 252.05C364.199 252.61 365.412 253.147 366.205 253.66V235.25ZM381.876 270.32C381.876 267.1 382.343 264.3 383.276 261.92C384.209 259.494 385.446 257.487 386.986 255.9C388.526 254.314 390.299 253.124 392.306 252.33C394.313 251.537 396.366 251.14 398.466 251.14C403.366 251.14 407.123 252.68 409.736 255.76C412.349 258.794 413.656 263.437 413.656 269.69C413.656 269.97 413.656 270.344 413.656 270.81C413.656 271.23 413.633 271.627 413.586 272H388.666C388.946 275.78 390.043 278.65 391.956 280.61C393.869 282.57 396.856 283.55 400.916 283.55C403.203 283.55 405.116 283.364 406.656 282.99C408.243 282.57 409.433 282.174 410.226 281.8L411.136 287.26C410.343 287.68 408.943 288.124 406.936 288.59C404.976 289.057 402.736 289.29 400.216 289.29C397.043 289.29 394.289 288.824 391.956 287.89C389.669 286.91 387.779 285.58 386.286 283.9C384.793 282.22 383.673 280.237 382.926 277.95C382.226 275.617 381.876 273.074 381.876 270.32ZM406.866 266.75C406.913 263.81 406.166 261.407 404.626 259.54C403.133 257.627 401.056 256.67 398.396 256.67C396.903 256.67 395.573 256.974 394.406 257.58C393.286 258.14 392.329 258.887 391.536 259.82C390.743 260.754 390.113 261.827 389.646 263.04C389.226 264.254 388.946 265.49 388.806 266.75H406.866ZM451.428 252.05C449.608 258.864 447.461 265.397 444.988 271.65C442.561 277.904 440.204 283.504 437.918 288.45H432.038C429.751 283.504 427.371 277.904 424.898 271.65C422.471 265.397 420.348 258.864 418.528 252.05H425.528C426.088 254.337 426.741 256.787 427.488 259.4C428.281 261.967 429.098 264.534 429.938 267.1C430.824 269.62 431.711 272.07 432.598 274.45C433.484 276.83 434.324 278.954 435.118 280.82C435.911 278.954 436.751 276.83 437.638 274.45C438.524 272.07 439.388 269.62 440.228 267.1C441.114 264.534 441.931 261.967 442.678 259.4C443.471 256.787 444.148 254.337 444.708 252.05H451.428Z" fill="white"/>
<defs>
<linearGradient id="paint0_linear" x1="155.153" y1="441.825" x2="155.153" y2="194.231" gradientUnits="userSpaceOnUse">
<stop/>
<stop offset="1" stop-color="white"/>
</linearGradient>
<linearGradient id="paint1_linear" x1="102.563" y1="247.031" x2="102.563" y2="364.932" gradientUnits="userSpaceOnUse">
<stop stop-color="#E9E9E9"/>
<stop offset="1"/>
</linearGradient>
<linearGradient id="paint2_linear" x1="87.7566" y1="200.895" x2="87.4993" y2="360.831" gradientUnits="userSpaceOnUse">
<stop stop-color="#DADADA"/>
<stop offset="1"/>
</linearGradient>
<linearGradient id="paint3_linear" x1="35.9325" y1="214.223" x2="35.9325" y2="360.831" gradientUnits="userSpaceOnUse">
<stop stop-color="#BDBDBD"/>
<stop offset="1"/>
</linearGradient>
<linearGradient id="paint4_linear" x1="100.011" y1="212.173" x2="-24.5768" y2="221.327" gradientUnits="userSpaceOnUse">
<stop stop-color="white"/>
<stop offset="1"/>
</linearGradient>
<linearGradient id="paint5_linear" x1="77.545" y1="130.667" x2="-7.25026" y2="109.806" gradientUnits="userSpaceOnUse">
<stop stop-color="#C4C4C4"/>
<stop offset="1"/>
</linearGradient>
<linearGradient id="paint6_linear" x1="100.521" y1="167.062" x2="100.521" y2="295.24" gradientUnits="userSpaceOnUse">
<stop stop-color="#D1D1D1"/>
<stop offset="1" stop-color="#474747"/>
</linearGradient>
<linearGradient id="paint7_linear" x1="137.339" y1="242.836" x2="214.776" y2="249.226" gradientUnits="userSpaceOnUse">
<stop stop-color="#C4C4C4"/>
<stop offset="1"/>
</linearGradient>
<linearGradient id="paint8_linear" x1="116.349" y1="201.92" x2="174.591" y2="218.713" gradientUnits="userSpaceOnUse">
<stop stop-color="#C4C4C4"/>
<stop offset="1" stop-color="#515151"/>
</linearGradient>
<linearGradient id="paint9_linear" x1="94.7641" y1="114.205" x2="101.122" y2="304.953" gradientUnits="userSpaceOnUse">
<stop stop-color="#C4C4C4"/>
<stop offset="1"/>
</linearGradient>
<radialGradient id="paint10_diamond" cx="0" cy="0" r="1" gradientUnits="userSpaceOnUse" gradientTransform="translate(106.648 149.633) rotate(98.3332) scale(17.6149 46.0147)">
<stop/>
<stop offset="1" stop-opacity="0"/>
</radialGradient>
<linearGradient id="paint11_linear" x1="143.704" y1="157.859" x2="190.238" y2="161.369" gradientUnits="userSpaceOnUse">
<stop stop-color="#C4C4C4"/>
<stop offset="1"/>
</linearGradient>
<linearGradient id="paint12_linear" x1="98.1352" y1="72.0072" x2="-4.60051" y2="31.6438" gradientUnits="userSpaceOnUse">
<stop stop-color="#C4C4C4"/>
<stop offset="1"/>
</linearGradient>
<linearGradient id="paint13_linear" x1="108.876" y1="91.9185" x2="24.4914" y2="125.543" gradientUnits="userSpaceOnUse">
<stop stop-color="#C4C4C4"/>
<stop offset="1"/>
</linearGradient>
<linearGradient id="paint14_linear" x1="118.913" y1="70.6906" x2="94.855" y2="213.38" gradientUnits="userSpaceOnUse">
<stop stop-color="#C4C4C4"/>
<stop offset="1"/>
</linearGradient>
<linearGradient id="paint15_linear" x1="119.708" y1="126.154" x2="214.037" y2="129.167" gradientUnits="userSpaceOnUse">
<stop offset="0.169719" stop-color="#C4C4C4"/>
<stop offset="1"/>
</linearGradient>
<linearGradient id="paint16_linear" x1="149.287" y1="33.7079" x2="136.536" y2="100.85" gradientUnits="userSpaceOnUse">
<stop/>
<stop offset="1" stop-color="white"/>
</linearGradient>
</defs>
</svg>
